Creating and validating a model • NHSRtt
…
completes <- calibration_period |>
  filter(
    type == "Complete"
  ) |>
  distinct(
    period_id,
    months_waited_id,
    value
  ) |>
  rename(
    treatments = "value"
  )

print(completes)
#> # A tibble: 156 × 3
#>    period_id months_waited_id treatments
#>        <int>            <dbl>      <dbl>
#>  1         1                0      7881.
#>  2         2                0      7812 
#>  3         3                0      9310.
#>  4         4                0      7361.
#>  5         5                0      8507.
#>  6         6                0      8585.
#>  7         7                0      8613.
#>  8         8                0      8997.
#>  9         9                0      8327.
#> 10        10                0      9026.
#> # ℹ 146 more rows
incompletes <- calibration_period |>
  filter(
    type == "Incomplete"
  ) |>
  distinct(
    period_id,
    months_waited_id,
    value
  ) |>
  rename(
    incompletes = "value"
  )

print(incompletes)
#> # A tibble: 156 × 3
#>    period_id months_waited_id incompletes
#>        <int>            <dbl>       <dbl>
#>  1         1                0      31360.
#>  2         2                0      26870 
#>  3         3                0      31033.
#>  4         4                0      26640 
#>  5         5                0      28718.
#>  6         6                0      29708.
#>  7         7                0      30146.
#>  8         8                0      27427.
#>  9         9                0      29318 
#> 10        10                0      29890.
#> # ℹ 146 more rows
…
The data are then passed to
apply_params_to_projections() which provides a full table
of stocks at each time step.

validation_performance <- apply_params_to_projections(
  capacity_projections = validation_capacity,
  referrals_projections = validation_referrals,
  incomplete_pathways = incompletes_at_t0,
  renege_capacity_params = params,
  max_months_waited = max_months_waited
)

print(validation_performance)
#> # A tibble: 78 × 6
#>    period_id months_waited_id calculated_treatments reneges incompletes
#>        <dbl>            <dbl>                 <dbl>   <dbl>       <dbl>
#>  1         1                1                 2359.    863.      23081.
#>  2         1                2                 1763.   1215.      23210.
#>  3         1                3                 1625.   1363.      20641.
#>  4         1                4                 1336.   2359.      16427.
#>  5         1                5                 1061.   1325.      14358.
#>  6         1                6                  957.   1024.      13157.
#>  7         1                7                  778.    860.      11057.
#>  8         1                8                  755.    858.       9721.
#>  9         1                9                  667.    785.       7650.
#> 10         1               10                  693.   1135.       7526.
#> # ℹ 68 more rows
#> # ℹ 1 more variable: input_treatments <dbl>
…
